// Jest Snapshot v1, https://goo.gl/fbAQLP

exports[`Preview exportTableModal Modal with no view 1`] = `
<div
  class="modal__wrapper"
>
  <div
    class="modal__box"
  >
    <!---->
     
    <!---->
     
    <h2
      class="box__title"
    >
      Export Test Table 1
    </h2>
     
    <!---->
     
    <form>
      <div
        class="row"
      >
        <div
          class="col col-12"
        >
          <div
            class="control"
          >
            <label
              class="control__label"
            >
              exportTableForm.viewLabel
            </label>
             
            <div
              class="control__elements"
            >
              <div
                class="dropdown"
                tabindex="0"
              >
                <a
                  class="dropdown__selected"
                >
                  <!---->
                  
        exportTableDropdown.exportEntireTable
       
                  <i
                    class="dropdown__toggle-icon fas fa-caret-down"
                  />
                </a>
                 
                <div
                  class="dropdown__items hidden"
                >
                  <div
                    class="select__search"
                  >
                    <i
                      class="select__search-icon fas fa-search"
                    />
                     
                    <input
                      class="select__search-input"
                      placeholder="action.search"
                      tabindex="0"
                      type="text"
                    />
                  </div>
                   
                  <ul
                    class="select__items"
                    tabindex=""
                  >
                    <li
                      class="select__item active hover"
                    >
                      <a
                        class="select__item-link"
                      >
                        <div
                          class="select__item-name"
                        >
                          <!---->
                           
                          <span
                            class="select__item-name-text"
                            title="exportTableDropdown.exportEntireTable"
                          >
                            exportTableDropdown.exportEntireTable
                          </span>
                        </div>
                         
                        <!---->
                      </a>
                    </li>
                     
                    <li
                      class="select__item"
                    >
                      <a
                        class="select__item-link"
                      >
                        <div
                          class="select__item-name"
                        >
                          <i
                            class="select__item-icon fas fa-fw fa-bars"
                          />
                           
                          <span
                            class="select__item-name-text"
                            title="mock_view_1"
                          >
                            mock_view_1
                          </span>
                        </div>
                         
                        <!---->
                      </a>
                    </li>
                  </ul>
                </div>
              </div>
            </div>
          </div>
           
          <div>
            <div
              class="control"
            >
              <label
                class="control__label"
              >
                exporterTypeChoices.formatLabel
              </label>
               
              <div
                class="control__elements"
              >
                <ul
                  class="choice-items"
                >
                  <li>
                    <a
                      class="choice-items__link active"
                    >
                      <i
                        class="choice-items__icon fas fa-file-csv"
                      />
                      
    exporterType.csv
    
                      <!---->
                    </a>
                     
                    <!---->
                  </li>
                </ul>
              </div>
            </div>
          </div>
           
          <!---->
        </div>
      </div>
       
      <div>
        <div
          class="row"
        >
          <div
            class="col col-4"
          >
            <div
              class="control"
            >
              <label
                class="control__label"
              >
                tableCSVExporter.columnSeparatorLabel
              </label>
               
              <div
                class="control__elements"
              >
                <div
                  class="dropdown"
                  tabindex="0"
                >
                  <a
                    class="dropdown__selected"
                  >
                    <!---->
                    
        ,
       
                    <i
                      class="dropdown__toggle-icon fas fa-caret-down"
                    />
                  </a>
                   
                  <div
                    class="dropdown__items hidden"
                  >
                    <div
                      class="select__search"
                    >
                      <i
                        class="select__search-icon fas fa-search"
                      />
                       
                      <input
                        class="select__search-input"
                        placeholder="action.search"
                        tabindex="0"
                        type="text"
                      />
                    </div>
                     
                    <ul
                      class="select__items"
                      tabindex=""
                    >
                      <li
                        class="select__item active"
                      >
                        <a
                          class="select__item-link"
                        >
                          <div
                            class="select__item-name"
                          >
                            <!---->
                             
                            <span
                              class="select__item-name-text"
                              title=","
                            >
                              ,
                            </span>
                          </div>
                           
                          <!---->
                        </a>
                      </li>
                       
                      <li
                        class="select__item"
                      >
                        <a
                          class="select__item-link"
                        >
                          <div
                            class="select__item-name"
                          >
                            <!---->
                             
                            <span
                              class="select__item-name-text"
                              title=";"
                            >
                              ;
                            </span>
                          </div>
                           
                          <!---->
                        </a>
                      </li>
                       
                      <li
                        class="select__item"
                      >
                        <a
                          class="select__item-link"
                        >
                          <div
                            class="select__item-name"
                          >
                            <!---->
                             
                            <span
                              class="select__item-name-text"
                              title="|"
                            >
                              |
                            </span>
                          </div>
                           
                          <!---->
                        </a>
                      </li>
                       
                      <li
                        class="select__item"
                      >
                        <a
                          class="select__item-link"
                        >
                          <div
                            class="select__item-name"
                          >
                            <!---->
                             
                            <span
                              class="select__item-name-text"
                              title=<tab>
                            >
                              &lt;tab&gt;
                            </span>
                          </div>
                           
                          <!---->
                        </a>
                      </li>
                       
                      <li
                        class="select__item"
                      >
                        <a
                          class="select__item-link"
                        >
                          <div
                            class="select__item-name"
                          >
                            <!---->
                             
                            <span
                              class="select__item-name-text"
                              title="tableCSVExporter.recordSeparator (30)"
                            >
                              tableCSVExporter.recordSeparator (30)
                            </span>
                          </div>
                           
                          <!---->
                        </a>
                      </li>
                       
                      <li
                        class="select__item"
                      >
                        <a
                          class="select__item-link"
                        >
                          <div
                            class="select__item-name"
                          >
                            <!---->
                             
                            <span
                              class="select__item-name-text"
                              title="tableCSVExporter.unitSeparator (31)"
                            >
                              tableCSVExporter.unitSeparator (31)
                            </span>
                          </div>
                           
                          <!---->
                        </a>
                      </li>
                    </ul>
                  </div>
                </div>
              </div>
            </div>
          </div>
           
          <div
            class="col col-8"
          >
            <div
              class="control"
            >
              <label
                class="control__label"
              >
                tableCSVExporter.encodingLabel
              </label>
               
              <div
                class="control__elements"
              >
                <div
                  class="dropdown"
                  tabindex="0"
                >
                  <a
                    class="dropdown__selected"
                  >
                    <!---->
                    
        Unicode (UTF-8)
       
                    <i
                      class="dropdown__toggle-icon fas fa-caret-down"
                    />
                  </a>
                   
                  <div
                    class="dropdown__items hidden"
                  >
                    <div
                      class="select__search"
                    >
                      <i
                        class="select__search-icon fas fa-search"
                      />
                       
                      <input
                        class="select__search-input"
                        placeholder="action.search"
                        tabindex="0"
                        type="text"
                      />
                    </div>
                     
                    <ul
                      class="select__items"
                      tabindex=""
                    >
                      <li
                        class="select__item active"
                      >
                        <a
                          class="select__item-link"
                        >
                          <div
                            class="select__item-name"
                          >
                            <!---->
                             
                            <span
                              class="select__item-name-text"
                              title="Unicode (UTF-8)"
                            >
                              Unicode (UTF-8)
                            </span>
                          </div>
                           
                          <!---->
                        </a>
                      </li>
                       
                      <li
                        class="select__item"
                      >
                        <a
                          class="select__item-link"
                        >
                          <div
                            class="select__item-name"
                          >
                            <!---->
                             
                            <span
                              class="select__item-name-text"
                              title="Arabic (ISO-8859-6)"
                            >
                              Arabic (ISO-8859-6)
                            </span>
                          </div>
                           
                          <!---->
                        </a>
                      </li>
                       
                      <li
                        class="select__item"
                      >
                        <a
                          class="select__item-link"
                        >
                          <div
                            class="select__item-name"
                          >
                            <!---->
                             
                            <span
                              class="select__item-name-text"
                              title="Arabic (Windows-1256)"
                            >
                              Arabic (Windows-1256)
                            </span>
                          </div>
                           
                          <!---->
                        </a>
                      </li>
                       
                      <li
                        class="select__item"
                      >
                        <a
                          class="select__item-link"
                        >
                          <div
                            class="select__item-name"
                          >
                            <!---->
                             
                            <span
                              class="select__item-name-text"
                              title="Baltic (ISO-8859-4)"
                            >
                              Baltic (ISO-8859-4)
                            </span>
                          </div>
                           
                          <!---->
                        </a>
                      </li>
                       
                      <li
                        class="select__item"
                      >
                        <a
                          class="select__item-link"
                        >
                          <div
                            class="select__item-name"
                          >
                            <!---->
                             
                            <span
                              class="select__item-name-text"
                              title="Baltic (windows-1257)"
                            >
                              Baltic (windows-1257)
                            </span>
                          </div>
                           
                          <!---->
                        </a>
                      </li>
                       
                      <li
                        class="select__item"
                      >
                        <a
                          class="select__item-link"
                        >
                          <div
                            class="select__item-name"
                          >
                            <!---->
                             
                            <span
                              class="select__item-name-text"
                              title="Celtic (ISO-8859-14)"
                            >
                              Celtic (ISO-8859-14)
                            </span>
                          </div>
                           
                          <!---->
                        </a>
                      </li>
                       
                      <li
                        class="select__item"
                      >
                        <a
                          class="select__item-link"
                        >
                          <div
                            class="select__item-name"
                          >
                            <!---->
                             
                            <span
                              class="select__item-name-text"
                              title="Central European (ISO-8859-2)"
                            >
                              Central European (ISO-8859-2)
                            </span>
                          </div>
                           
                          <!---->
                        </a>
                      </li>
                       
                      <li
                        class="select__item"
                      >
                        <a
                          class="select__item-link"
                        >
                          <div
                            class="select__item-name"
                          >
                            <!---->
                             
                            <span
                              class="select__item-name-text"
                              title="Central European (Windows-1250)"
                            >
                              Central European (Windows-1250)
                            </span>
                          </div>
                           
                          <!---->
                        </a>
                      </li>
                       
                      <li
                        class="select__item"
                      >
                        <a
                          class="select__item-link"
                        >
                          <div
                            class="select__item-name"
                          >
                            <!---->
                             
                            <span
                              class="select__item-name-text"
                              title="Chinese, Simplified (GBK)"
                            >
                              Chinese, Simplified (GBK)
                            </span>
                          </div>
                           
                          <!---->
                        </a>
                      </li>
                       
                      <li
                        class="select__item"
                      >
                        <a
                          class="select__item-link"
                        >
                          <div
                            class="select__item-name"
                          >
                            <!---->
                             
                            <span
                              class="select__item-name-text"
                              title="Chinese (GB18030)"
                            >
                              Chinese (GB18030)
                            </span>
                          </div>
                           
                          <!---->
                        </a>
                      </li>
                       
                      <li
                        class="select__item"
                      >
                        <a
                          class="select__item-link"
                        >
                          <div
                            class="select__item-name"
                          >
                            <!---->
                             
                            <span
                              class="select__item-name-text"
                              title="Chinese Traditional (Big5)"
                            >
                              Chinese Traditional (Big5)
                            </span>
                          </div>
                           
                          <!---->
                        </a>
                      </li>
                       
                      <li
                        class="select__item"
                      >
                        <a
                          class="select__item-link"
                        >
                          <div
                            class="select__item-name"
                          >
                            <!---->
                             
                            <span
                              class="select__item-name-text"
                              title="Cyrillic (KOI8-R)"
                            >
                              Cyrillic (KOI8-R)
                            </span>
                          </div>
                           
                          <!---->
                        </a>
                      </li>
                       
                      <li
                        class="select__item"
                      >
                        <a
                          class="select__item-link"
                        >
                          <div
                            class="select__item-name"
                          >
                            <!---->
                             
                            <span
                              class="select__item-name-text"
                              title="Cyrillic (KOI8-U)"
                            >
                              Cyrillic (KOI8-U)
                            </span>
                          </div>
                           
                          <!---->
                        </a>
                      </li>
                       
                      <li
                        class="select__item"
                      >
                        <a
                          class="select__item-link"
                        >
                          <div
                            class="select__item-name"
                          >
                            <!---->
                             
                            <span
                              class="select__item-name-text"
                              title="Cyrillic (ISO-8859-5)"
                            >
                              Cyrillic (ISO-8859-5)
                            </span>
                          </div>
                           
                          <!---->
                        </a>
                      </li>
                       
                      <li
                        class="select__item"
                      >
                        <a
                          class="select__item-link"
                        >
                          <div
                            class="select__item-name"
                          >
                            <!---->
                             
                            <span
                              class="select__item-name-text"
                              title="Cyrillic (Windows-1251)"
                            >
                              Cyrillic (Windows-1251)
                            </span>
                          </div>
                           
                          <!---->
                        </a>
                      </li>
                       
                      <li
                        class="select__item"
                      >
                        <a
                          class="select__item-link"
                        >
                          <div
                            class="select__item-name"
                          >
                            <!---->
                             
                            <span
                              class="select__item-name-text"
                              title="Cyrillic Mac OS (x-mac-cyrillic)"
                            >
                              Cyrillic Mac OS (x-mac-cyrillic)
                            </span>
                          </div>
                           
                          <!---->
                        </a>
                      </li>
                       
                      <li
                        class="select__item"
                      >
                        <a
                          class="select__item-link"
                        >
                          <div
                            class="select__item-name"
                          >
                            <!---->
                             
                            <span
                              class="select__item-name-text"
                              title="Greek (ISO-8859-7)"
                            >
                              Greek (ISO-8859-7)
                            </span>
                          </div>
                           
                          <!---->
                        </a>
                      </li>
                       
                      <li
                        class="select__item"
                      >
                        <a
                          class="select__item-link"
                        >
                          <div
                            class="select__item-name"
                          >
                            <!---->
                             
                            <span
                              class="select__item-name-text"
                              title="Greek (Windows-1253)"
                            >
                              Greek (Windows-1253)
                            </span>
                          </div>
                           
                          <!---->
                        </a>
                      </li>
                       
                      <li
                        class="select__item"
                      >
                        <a
                          class="select__item-link"
                        >
                          <div
                            class="select__item-name"
                          >
                            <!---->
                             
                            <span
                              class="select__item-name-text"
                              title="Hebrew (ISO-8859-8)"
                            >
                              Hebrew (ISO-8859-8)
                            </span>
                          </div>
                           
                          <!---->
                        </a>
                      </li>
                       
                      <li
                        class="select__item"
                      >
                        <a
                          class="select__item-link"
                        >
                          <div
                            class="select__item-name"
                          >
                            <!---->
                             
                            <span
                              class="select__item-name-text"
                              title="Hebrew (Windows-1255)"
                            >
                              Hebrew (Windows-1255)
                            </span>
                          </div>
                           
                          <!---->
                        </a>
                      </li>
                       
                      <li
                        class="select__item"
                      >
                        <a
                          class="select__item-link"
                        >
                          <div
                            class="select__item-name"
                          >
                            <!---->
                             
                            <span
                              class="select__item-name-text"
                              title="Japanese (EUC-JP)"
                            >
                              Japanese (EUC-JP)
                            </span>
                          </div>
                           
                          <!---->
                        </a>
                      </li>
                       
                      <li
                        class="select__item"
                      >
                        <a
                          class="select__item-link"
                        >
                          <div
                            class="select__item-name"
                          >
                            <!---->
                             
                            <span
                              class="select__item-name-text"
                              title="Japanese (ISO-2022-JP)"
                            >
                              Japanese (ISO-2022-JP)
                            </span>
                          </div>
                           
                          <!---->
                        </a>
                      </li>
                       
                      <li
                        class="select__item"
                      >
                        <a
                          class="select__item-link"
                        >
                          <div
                            class="select__item-name"
                          >
                            <!---->
                             
                            <span
                              class="select__item-name-text"
                              title="Japanese (Shift-JIS)"
                            >
                              Japanese (Shift-JIS)
                            </span>
                          </div>
                           
                          <!---->
                        </a>
                      </li>
                       
                      <li
                        class="select__item"
                      >
                        <a
                          class="select__item-link"
                        >
                          <div
                            class="select__item-name"
                          >
                            <!---->
                             
                            <span
                              class="select__item-name-text"
                              title="Korean (EUC-KR)"
                            >
                              Korean (EUC-KR)
                            </span>
                          </div>
                           
                          <!---->
                        </a>
                      </li>
                       
                      <li
                        class="select__item"
                      >
                        <a
                          class="select__item-link"
                        >
                          <div
                            class="select__item-name"
                          >
                            <!---->
                             
                            <span
                              class="select__item-name-text"
                              title="Macintosh"
                            >
                              Macintosh
                            </span>
                          </div>
                           
                          <!---->
                        </a>
                      </li>
                       
                      <li
                        class="select__item"
                      >
                        <a
                          class="select__item-link"
                        >
                          <div
                            class="select__item-name"
                          >
                            <!---->
                             
                            <span
                              class="select__item-name-text"
                              title="Nordic (ISO-8859-10)"
                            >
                              Nordic (ISO-8859-10)
                            </span>
                          </div>
                           
                          <!---->
                        </a>
                      </li>
                       
                      <li
                        class="select__item"
                      >
                        <a
                          class="select__item-link"
                        >
                          <div
                            class="select__item-name"
                          >
                            <!---->
                             
                            <span
                              class="select__item-name-text"
                              title="South-Eastern European (ISO-8859-16)"
                            >
                              South-Eastern European (ISO-8859-16)
                            </span>
                          </div>
                           
                          <!---->
                        </a>
                      </li>
                       
                      <li
                        class="select__item"
                      >
                        <a
                          class="select__item-link"
                        >
                          <div
                            class="select__item-name"
                          >
                            <!---->
                             
                            <span
                              class="select__item-name-text"
                              title="Thai (Windows-874)"
                            >
                              Thai (Windows-874)
                            </span>
                          </div>
                           
                          <!---->
                        </a>
                      </li>
                       
                      <li
                        class="select__item"
                      >
                        <a
                          class="select__item-link"
                        >
                          <div
                            class="select__item-name"
                          >
                            <!---->
                             
                            <span
                              class="select__item-name-text"
                              title="Turkish (Windows-1254)"
                            >
                              Turkish (Windows-1254)
                            </span>
                          </div>
                           
                          <!---->
                        </a>
                      </li>
                       
                      <li
                        class="select__item"
                      >
                        <a
                          class="select__item-link"
                        >
                          <div
                            class="select__item-name"
                          >
                            <!---->
                             
                            <span
                              class="select__item-name-text"
                              title="Vietnamese (Windows-1258)"
                            >
                              Vietnamese (Windows-1258)
                            </span>
                          </div>
                           
                          <!---->
                        </a>
                      </li>
                       
                      <li
                        class="select__item"
                      >
                        <a
                          class="select__item-link"
                        >
                          <div
                            class="select__item-name"
                          >
                            <!---->
                             
                            <span
                              class="select__item-name-text"
                              title="Western European (ISO-8859-1)"
                            >
                              Western European (ISO-8859-1)
                            </span>
                          </div>
                           
                          <!---->
                        </a>
                      </li>
                       
                      <li
                        class="select__item"
                      >
                        <a
                          class="select__item-link"
                        >
                          <div
                            class="select__item-name"
                          >
                            <!---->
                             
                            <span
                              class="select__item-name-text"
                              title="Western European (Windows-1252)"
                            >
                              Western European (Windows-1252)
                            </span>
                          </div>
                           
                          <!---->
                        </a>
                      </li>
                       
                      <li
                        class="select__item"
                      >
                        <a
                          class="select__item-link"
                        >
                          <div
                            class="select__item-name"
                          >
                            <!---->
                             
                            <span
                              class="select__item-name-text"
                              title="Latin 3 (ISO-8859-3)"
                            >
                              Latin 3 (ISO-8859-3)
                            </span>
                          </div>
                           
                          <!---->
                        </a>
                      </li>
                    </ul>
                  </div>
                </div>
              </div>
            </div>
          </div>
        </div>
         
        <div
          class="row"
        >
          <div
            class="col col-6"
          >
            <div
              class="control"
            >
              <label
                class="control__label"
              >
                tableCSVExporter.firstRowIsHeaderLabel
              </label>
               
              <div
                class="control__elements"
              >
                <div
                  class="checkbox checkbox--has-content active"
                >
                  common.yes
                </div>
              </div>
            </div>
          </div>
        </div>
      </div>
       
      <div
        class="modal-progress__actions"
      >
        <!---->
         
        <button
          class="button button--large button--primary modal-progress__export-button"
        >
          
    exportTableLoadingBar.export
  
        </button>
      </div>
    </form>
      
    <a
      class="modal__close"
    >
      <i
        class="fas fa-times"
      />
    </a>
  </div>
</div>
`;

exports[`Preview exportTableModal Modal with view 1`] = `
<div
  class="modal__wrapper"
>
  <div
    class="modal__box"
  >
    <!---->
     
    <!---->
     
    <h2
      class="box__title"
    >
      Export Test Table 1
    </h2>
     
    <!---->
     
    <form>
      <div
        class="row"
      >
        <div
          class="col col-12"
        >
          <div
            class="control"
          >
            <label
              class="control__label"
            >
              exportTableForm.viewLabel
            </label>
             
            <div
              class="control__elements"
            >
              <div
                class="dropdown"
                tabindex="0"
              >
                <a
                  class="dropdown__selected"
                >
                  <i
                    class="dropdown__selected-icon fas fa-bars"
                  />
                  
        mock_view_1
       
                  <i
                    class="dropdown__toggle-icon fas fa-caret-down"
                  />
                </a>
                 
                <div
                  class="dropdown__items hidden"
                >
                  <div
                    class="select__search"
                  >
                    <i
                      class="select__search-icon fas fa-search"
                    />
                     
                    <input
                      class="select__search-input"
                      placeholder="action.search"
                      tabindex="0"
                      type="text"
                    />
                  </div>
                   
                  <ul
                    class="select__items"
                    tabindex=""
                  >
                    <li
                      class="select__item hover"
                    >
                      <a
                        class="select__item-link"
                      >
                        <div
                          class="select__item-name"
                        >
                          <!---->
                           
                          <span
                            class="select__item-name-text"
                            title="exportTableDropdown.exportEntireTable"
                          >
                            exportTableDropdown.exportEntireTable
                          </span>
                        </div>
                         
                        <!---->
                      </a>
                    </li>
                     
                    <li
                      class="select__item active"
                    >
                      <a
                        class="select__item-link"
                      >
                        <div
                          class="select__item-name"
                        >
                          <i
                            class="select__item-icon fas fa-fw fa-bars"
                          />
                           
                          <span
                            class="select__item-name-text"
                            title="mock_view_1"
                          >
                            mock_view_1
                          </span>
                        </div>
                         
                        <!---->
                      </a>
                    </li>
                  </ul>
                </div>
              </div>
            </div>
          </div>
           
          <div>
            <div
              class="control"
            >
              <label
                class="control__label"
              >
                exporterTypeChoices.formatLabel
              </label>
               
              <div
                class="control__elements"
              >
                <ul
                  class="choice-items"
                >
                  <li>
                    <a
                      class="choice-items__link active"
                    >
                      <i
                        class="choice-items__icon fas fa-file-csv"
                      />
                      
    exporterType.csv
    
                      <!---->
                    </a>
                     
                    <!---->
                  </li>
                </ul>
              </div>
            </div>
          </div>
           
          <!---->
        </div>
      </div>
       
      <div>
        <div
          class="row"
        >
          <div
            class="col col-4"
          >
            <div
              class="control"
            >
              <label
                class="control__label"
              >
                tableCSVExporter.columnSeparatorLabel
              </label>
               
              <div
                class="control__elements"
              >
                <div
                  class="dropdown"
                  tabindex="0"
                >
                  <a
                    class="dropdown__selected"
                  >
                    <!---->
                    
        ,
       
                    <i
                      class="dropdown__toggle-icon fas fa-caret-down"
                    />
                  </a>
                   
                  <div
                    class="dropdown__items hidden"
                  >
                    <div
                      class="select__search"
                    >
                      <i
                        class="select__search-icon fas fa-search"
                      />
                       
                      <input
                        class="select__search-input"
                        placeholder="action.search"
                        tabindex="0"
                        type="text"
                      />
                    </div>
                     
                    <ul
                      class="select__items"
                      tabindex=""
                    >
                      <li
                        class="select__item active"
                      >
                        <a
                          class="select__item-link"
                        >
                          <div
                            class="select__item-name"
                          >
                            <!---->
                             
                            <span
                              class="select__item-name-text"
                              title=","
                            >
                              ,
                            </span>
                          </div>
                           
                          <!---->
                        </a>
                      </li>
                       
                      <li
                        class="select__item"
                      >
                        <a
                          class="select__item-link"
                        >
                          <div
                            class="select__item-name"
                          >
                            <!---->
                             
                            <span
                              class="select__item-name-text"
                              title=";"
                            >
                              ;
                            </span>
                          </div>
                           
                          <!---->
                        </a>
                      </li>
                       
                      <li
                        class="select__item"
                      >
                        <a
                          class="select__item-link"
                        >
                          <div
                            class="select__item-name"
                          >
                            <!---->
                             
                            <span
                              class="select__item-name-text"
                              title="|"
                            >
                              |
                            </span>
                          </div>
                           
                          <!---->
                        </a>
                      </li>
                       
                      <li
                        class="select__item"
                      >
                        <a
                          class="select__item-link"
                        >
                          <div
                            class="select__item-name"
                          >
                            <!---->
                             
                            <span
                              class="select__item-name-text"
                              title=<tab>
                            >
                              &lt;tab&gt;
                            </span>
                          </div>
                           
                          <!---->
                        </a>
                      </li>
                       
                      <li
                        class="select__item"
                      >
                        <a
                          class="select__item-link"
                        >
                          <div
                            class="select__item-name"
                          >
                            <!---->
                             
                            <span
                              class="select__item-name-text"
                              title="tableCSVExporter.recordSeparator (30)"
                            >
                              tableCSVExporter.recordSeparator (30)
                            </span>
                          </div>
                           
                          <!---->
                        </a>
                      </li>
                       
                      <li
                        class="select__item"
                      >
                        <a
                          class="select__item-link"
                        >
                          <div
                            class="select__item-name"
                          >
                            <!---->
                             
                            <span
                              class="select__item-name-text"
                              title="tableCSVExporter.unitSeparator (31)"
                            >
                              tableCSVExporter.unitSeparator (31)
                            </span>
                          </div>
                           
                          <!---->
                        </a>
                      </li>
                    </ul>
                  </div>
                </div>
              </div>
            </div>
          </div>
           
          <div
            class="col col-8"
          >
            <div
              class="control"
            >
              <label
                class="control__label"
              >
                tableCSVExporter.encodingLabel
              </label>
               
              <div
                class="control__elements"
              >
                <div
                  class="dropdown"
                  tabindex="0"
                >
                  <a
                    class="dropdown__selected"
                  >
                    <!---->
                    
        Unicode (UTF-8)
       
                    <i
                      class="dropdown__toggle-icon fas fa-caret-down"
                    />
                  </a>
                   
                  <div
                    class="dropdown__items hidden"
                  >
                    <div
                      class="select__search"
                    >
                      <i
                        class="select__search-icon fas fa-search"
                      />
                       
                      <input
                        class="select__search-input"
                        placeholder="action.search"
                        tabindex="0"
                        type="text"
                      />
                    </div>
                     
                    <ul
                      class="select__items"
                      tabindex=""
                    >
                      <li
                        class="select__item active"
                      >
                        <a
                          class="select__item-link"
                        >
                          <div
                            class="select__item-name"
                          >
                            <!---->
                             
                            <span
                              class="select__item-name-text"
                              title="Unicode (UTF-8)"
                            >
                              Unicode (UTF-8)
                            </span>
                          </div>
                           
                          <!---->
                        </a>
                      </li>
                       
                      <li
                        class="select__item"
                      >
                        <a
                          class="select__item-link"
                        >
                          <div
                            class="select__item-name"
                          >
                            <!---->
                             
                            <span
                              class="select__item-name-text"
                              title="Arabic (ISO-8859-6)"
                            >
                              Arabic (ISO-8859-6)
                            </span>
                          </div>
                           
                          <!---->
                        </a>
                      </li>
                       
                      <li
                        class="select__item"
                      >
                        <a
                          class="select__item-link"
                        >
                          <div
                            class="select__item-name"
                          >
                            <!---->
                             
                            <span
                              class="select__item-name-text"
                              title="Arabic (Windows-1256)"
                            >
                              Arabic (Windows-1256)
                            </span>
                          </div>
                           
                          <!---->
                        </a>
                      </li>
                       
                      <li
                        class="select__item"
                      >
                        <a
                          class="select__item-link"
                        >
                          <div
                            class="select__item-name"
                          >
                            <!---->
                             
                            <span
                              class="select__item-name-text"
                              title="Baltic (ISO-8859-4)"
                            >
                              Baltic (ISO-8859-4)
                            </span>
                          </div>
                           
                          <!---->
                        </a>
                      </li>
                       
                      <li
                        class="select__item"
                      >
                        <a
                          class="select__item-link"
                        >
                          <div
                            class="select__item-name"
                          >
                            <!---->
                             
                            <span
                              class="select__item-name-text"
                              title="Baltic (windows-1257)"
                            >
                              Baltic (windows-1257)
                            </span>
                          </div>
                           
                          <!---->
                        </a>
                      </li>
                       
                      <li
                        class="select__item"
                      >
                        <a
                          class="select__item-link"
                        >
                          <div
                            class="select__item-name"
                          >
                            <!---->
                             
                            <span
                              class="select__item-name-text"
                              title="Celtic (ISO-8859-14)"
                            >
                              Celtic (ISO-8859-14)
                            </span>
                          </div>
                           
                          <!---->
                        </a>
                      </li>
                       
                      <li
                        class="select__item"
                      >
                        <a
                          class="select__item-link"
                        >
                          <div
                            class="select__item-name"
                          >
                            <!---->
                             
                            <span
                              class="select__item-name-text"
                              title="Central European (ISO-8859-2)"
                            >
                              Central European (ISO-8859-2)
                            </span>
                          </div>
                           
                          <!---->
                        </a>
                      </li>
                       
                      <li
                        class="select__item"
                      >
                        <a
                          class="select__item-link"
                        >
                          <div
                            class="select__item-name"
                          >
                            <!---->
                             
                            <span
                              class="select__item-name-text"
                              title="Central European (Windows-1250)"
                            >
                              Central European (Windows-1250)
                            </span>
                          </div>
                           
                          <!---->
                        </a>
                      </li>
                       
                      <li
                        class="select__item"
                      >
                        <a
                          class="select__item-link"
                        >
                          <div
                            class="select__item-name"
                          >
                            <!---->
                             
                            <span
                              class="select__item-name-text"
                              title="Chinese, Simplified (GBK)"
                            >
                              Chinese, Simplified (GBK)
                            </span>
                          </div>
                           
                          <!---->
                        </a>
                      </li>
                       
                      <li
                        class="select__item"
                      >
                        <a
                          class="select__item-link"
                        >
                          <div
                            class="select__item-name"
                          >
                            <!---->
                             
                            <span
                              class="select__item-name-text"
                              title="Chinese (GB18030)"
                            >
                              Chinese (GB18030)
                            </span>
                          </div>
                           
                          <!---->
                        </a>
                      </li>
                       
                      <li
                        class="select__item"
                      >
                        <a
                          class="select__item-link"
                        >
                          <div
                            class="select__item-name"
                          >
                            <!---->
                             
                            <span
                              class="select__item-name-text"
                              title="Chinese Traditional (Big5)"
                            >
                              Chinese Traditional (Big5)
                            </span>
                          </div>
                           
                          <!---->
                        </a>
                      </li>
                       
                      <li
                        class="select__item"
                      >
                        <a
                          class="select__item-link"
                        >
                          <div
                            class="select__item-name"
                          >
                            <!---->
                             
                            <span
                              class="select__item-name-text"
                              title="Cyrillic (KOI8-R)"
                            >
                              Cyrillic (KOI8-R)
                            </span>
                          </div>
                           
                          <!---->
                        </a>
                      </li>
                       
                      <li
                        class="select__item"
                      >
                        <a
                          class="select__item-link"
                        >
                          <div
                            class="select__item-name"
                          >
                            <!---->
                             
                            <span
                              class="select__item-name-text"
                              title="Cyrillic (KOI8-U)"
                            >
                              Cyrillic (KOI8-U)
                            </span>
                          </div>
                           
                          <!---->
                        </a>
                      </li>
                       
                      <li
                        class="select__item"
                      >
                        <a
                          class="select__item-link"
                        >
                          <div
                            class="select__item-name"
                          >
                            <!---->
                             
                            <span
                              class="select__item-name-text"
                              title="Cyrillic (ISO-8859-5)"
                            >
                              Cyrillic (ISO-8859-5)
                            </span>
                          </div>
                           
                          <!---->
                        </a>
                      </li>
                       
                      <li
                        class="select__item"
                      >
                        <a
                          class="select__item-link"
                        >
                          <div
                            class="select__item-name"
                          >
                            <!---->
                             
                            <span
                              class="select__item-name-text"
                              title="Cyrillic (Windows-1251)"
                            >
                              Cyrillic (Windows-1251)
                            </span>
                          </div>
                           
                          <!---->
                        </a>
                      </li>
                       
                      <li
                        class="select__item"
                      >
                        <a
                          class="select__item-link"
                        >
                          <div
                            class="select__item-name"
                          >
                            <!---->
                             
                            <span
                              class="select__item-name-text"
                              title="Cyrillic Mac OS (x-mac-cyrillic)"
                            >
                              Cyrillic Mac OS (x-mac-cyrillic)
                            </span>
                          </div>
                           
                          <!---->
                        </a>
                      </li>
                       
                      <li
                        class="select__item"
                      >
                        <a
                          class="select__item-link"
                        >
                          <div
                            class="select__item-name"
                          >
                            <!---->
                             
                            <span
                              class="select__item-name-text"
                              title="Greek (ISO-8859-7)"
                            >
                              Greek (ISO-8859-7)
                            </span>
                          </div>
                           
                          <!---->
                        </a>
                      </li>
                       
                      <li
                        class="select__item"
                      >
                        <a
                          class="select__item-link"
                        >
                          <div
                            class="select__item-name"
                          >
                            <!---->
                             
                            <span
                              class="select__item-name-text"
                              title="Greek (Windows-1253)"
                            >
                              Greek (Windows-1253)
                            </span>
                          </div>
                           
                          <!---->
                        </a>
                      </li>
                       
                      <li
                        class="select__item"
                      >
                        <a
                          class="select__item-link"
                        >
                          <div
                            class="select__item-name"
                          >
                            <!---->
                             
                            <span
                              class="select__item-name-text"
                              title="Hebrew (ISO-8859-8)"
                            >
                              Hebrew (ISO-8859-8)
                            </span>
                          </div>
                           
                          <!---->
                        </a>
                      </li>
                       
                      <li
                        class="select__item"
                      >
                        <a
                          class="select__item-link"
                        >
                          <div
                            class="select__item-name"
                          >
                            <!---->
                             
                            <span
                              class="select__item-name-text"
                              title="Hebrew (Windows-1255)"
                            >
                              Hebrew (Windows-1255)
                            </span>
                          </div>
                           
                          <!---->
                        </a>
                      </li>
                       
                      <li
                        class="select__item"
                      >
                        <a
                          class="select__item-link"
                        >
                          <div
                            class="select__item-name"
                          >
                            <!---->
                             
                            <span
                              class="select__item-name-text"
                              title="Japanese (EUC-JP)"
                            >
                              Japanese (EUC-JP)
                            </span>
                          </div>
                           
                          <!---->
                        </a>
                      </li>
                       
                      <li
                        class="select__item"
                      >
                        <a
                          class="select__item-link"
                        >
                          <div
                            class="select__item-name"
                          >
                            <!---->
                             
                            <span
                              class="select__item-name-text"
                              title="Japanese (ISO-2022-JP)"
                            >
                              Japanese (ISO-2022-JP)
                            </span>
                          </div>
                           
                          <!---->
                        </a>
                      </li>
                       
                      <li
                        class="select__item"
                      >
                        <a
                          class="select__item-link"
                        >
                          <div
                            class="select__item-name"
                          >
                            <!---->
                             
                            <span
                              class="select__item-name-text"
                              title="Japanese (Shift-JIS)"
                            >
                              Japanese (Shift-JIS)
                            </span>
                          </div>
                           
                          <!---->
                        </a>
                      </li>
                       
                      <li
                        class="select__item"
                      >
                        <a
                          class="select__item-link"
                        >
                          <div
                            class="select__item-name"
                          >
                            <!---->
                             
                            <span
                              class="select__item-name-text"
                              title="Korean (EUC-KR)"
                            >
                              Korean (EUC-KR)
                            </span>
                          </div>
                           
                          <!---->
                        </a>
                      </li>
                       
                      <li
                        class="select__item"
                      >
                        <a
                          class="select__item-link"
                        >
                          <div
                            class="select__item-name"
                          >
                            <!---->
                             
                            <span
                              class="select__item-name-text"
                              title="Macintosh"
                            >
                              Macintosh
                            </span>
                          </div>
                           
                          <!---->
                        </a>
                      </li>
                       
                      <li
                        class="select__item"
                      >
                        <a
                          class="select__item-link"
                        >
                          <div
                            class="select__item-name"
                          >
                            <!---->
                             
                            <span
                              class="select__item-name-text"
                              title="Nordic (ISO-8859-10)"
                            >
                              Nordic (ISO-8859-10)
                            </span>
                          </div>
                           
                          <!---->
                        </a>
                      </li>
                       
                      <li
                        class="select__item"
                      >
                        <a
                          class="select__item-link"
                        >
                          <div
                            class="select__item-name"
                          >
                            <!---->
                             
                            <span
                              class="select__item-name-text"
                              title="South-Eastern European (ISO-8859-16)"
                            >
                              South-Eastern European (ISO-8859-16)
                            </span>
                          </div>
                           
                          <!---->
                        </a>
                      </li>
                       
                      <li
                        class="select__item"
                      >
                        <a
                          class="select__item-link"
                        >
                          <div
                            class="select__item-name"
                          >
                            <!---->
                             
                            <span
                              class="select__item-name-text"
                              title="Thai (Windows-874)"
                            >
                              Thai (Windows-874)
                            </span>
                          </div>
                           
                          <!---->
                        </a>
                      </li>
                       
                      <li
                        class="select__item"
                      >
                        <a
                          class="select__item-link"
                        >
                          <div
                            class="select__item-name"
                          >
                            <!---->
                             
                            <span
                              class="select__item-name-text"
                              title="Turkish (Windows-1254)"
                            >
                              Turkish (Windows-1254)
                            </span>
                          </div>
                           
                          <!---->
                        </a>
                      </li>
                       
                      <li
                        class="select__item"
                      >
                        <a
                          class="select__item-link"
                        >
                          <div
                            class="select__item-name"
                          >
                            <!---->
                             
                            <span
                              class="select__item-name-text"
                              title="Vietnamese (Windows-1258)"
                            >
                              Vietnamese (Windows-1258)
                            </span>
                          </div>
                           
                          <!---->
                        </a>
                      </li>
                       
                      <li
                        class="select__item"
                      >
                        <a
                          class="select__item-link"
                        >
                          <div
                            class="select__item-name"
                          >
                            <!---->
                             
                            <span
                              class="select__item-name-text"
                              title="Western European (ISO-8859-1)"
                            >
                              Western European (ISO-8859-1)
                            </span>
                          </div>
                           
                          <!---->
                        </a>
                      </li>
                       
                      <li
                        class="select__item"
                      >
                        <a
                          class="select__item-link"
                        >
                          <div
                            class="select__item-name"
                          >
                            <!---->
                             
                            <span
                              class="select__item-name-text"
                              title="Western European (Windows-1252)"
                            >
                              Western European (Windows-1252)
                            </span>
                          </div>
                           
                          <!---->
                        </a>
                      </li>
                       
                      <li
                        class="select__item"
                      >
                        <a
                          class="select__item-link"
                        >
                          <div
                            class="select__item-name"
                          >
                            <!---->
                             
                            <span
                              class="select__item-name-text"
                              title="Latin 3 (ISO-8859-3)"
                            >
                              Latin 3 (ISO-8859-3)
                            </span>
                          </div>
                           
                          <!---->
                        </a>
                      </li>
                    </ul>
                  </div>
                </div>
              </div>
            </div>
          </div>
        </div>
         
        <div
          class="row"
        >
          <div
            class="col col-6"
          >
            <div
              class="control"
            >
              <label
                class="control__label"
              >
                tableCSVExporter.firstRowIsHeaderLabel
              </label>
               
              <div
                class="control__elements"
              >
                <div
                  class="checkbox checkbox--has-content active"
                >
                  common.yes
                </div>
              </div>
            </div>
          </div>
        </div>
      </div>
       
      <div
        class="modal-progress__actions"
      >
        <!---->
         
        <button
          class="button button--large button--primary modal-progress__export-button"
        >
          
    exportTableLoadingBar.export
  
        </button>
      </div>
    </form>
      
    <a
      class="modal__close"
    >
      <i
        class="fas fa-times"
      />
    </a>
  </div>
</div>
`;
